6 Advanced data manipulation | Intro to R
…
Using multiple filters at once

gapminder %>%
  dplyr::filter(continent == "Europe", year == 2007) %>%
  dplyr::select(country, lifeExp)

## # A tibble: 30 × 2
##    country                lifeExp
##    <fct>                    <dbl>
##  1 Albania                   76.4
##  2 Austria                   79.8
##  3 Belgium                   79.4
##  4 Bosnia and Herzegovina    74.9
##  5 Bulgaria                  73.0
##  6 Croatia                   75.7
##  7 Czech Republic            76.5
##  8 Denmark                   78.3
##  9 Finland                   79.3
## 10 France                    80.7
## # ℹ 20 more rows

Extract unique entries

gapminder %>%
  dplyr::select(country, continent) %>%
  dplyr::distinct()

## # A tibble: 142 × 2
##    country     continent
##    <fct>       <fct>    
##  1 Afghanistan Asia     
##  2 Albania     Europe   
##  3 Algeria     Africa   
##  4 Angola      Africa   
##  5 Argentina   Americas 
##  6 Australia   Oceania  
##  7 Austria     Europe   
##  8 Bahrain     Asia     
##  9 Bangladesh  Asia     
## 10 Belgium     Europe   
## # ℹ 132 more rows
…
## # A tibble: 5 × 5
##   continent mean_le min_le max_le se_le
##   <fct>       <dbl>  <dbl>  <dbl> <dbl>
## 1 Africa       48.9   23.6   76.4 0.366
## 2 Americas     64.7   37.6   80.7 0.540
## 3 Asia         60.1   28.8   82.6 0.596
## 4 Europe       71.9   43.6   81.8 0.286
## 5 Oceania      74.3   69.1   81.2 0.775

6.1.6 Using mutate()

gapminder %>%
  dplyr::mutate(gdp_billion = gdpPercap*pop/10^9)

## # A tibble: 1,704 × 7
##    country     continent  year lifeExp      pop gdpPercap gdp_billion
##    <fct>       <fct>     <int>   <dbl>    <int>     <dbl>       <dbl>
##  1 Afghanistan Asia       1952    28.8  8425333      779.        6.57
##  2 Afghanistan Asia       1957    30.3  9240934      821.        7.59
##  3 Afghanistan Asia       1962    32.0 10267083      853.        8.76
##  4 Afghanistan Asia       1967    34.0 11537966      836.        9.65
##  5 Afghanistan Asia       1972    36.1 13079460      740.        9.68
##  6 Afghanistan Asia       1977    38.4 14880372      786.       11.7 
##  7 Afghanistan Asia       1982    39.9 12881816      978.       12.6 
##  8 Afghanistan Asia       1987    40.8 13867957      852.       11.8 
##  9 Afghanistan Asia       1992    41.7 16317921      649.       10.6 
## 10 Afghanistan Asia       1997    41.8 22227415      635.       14.1 
## # ℹ 1,694 more rows
…
gdp_pop_ext <-gapminder %>%
                dplyr::mutate(gdp_billion = gdpPercap*pop/10^9) %>%
                dplyr::group_by(continent,year) %>%
                dplyr::summarize(mean_gdpPercap = mean(gdpPercap),
                                 sd_gdpPercap = sd(gdpPercap),
                                 mean_pop = mean(pop),
                                 sd_pop = sd(pop),
                                 mean_gdp_billion = mean(gdp_billion),
                                 sd_gdp_billion = sd(gdp_billion)) 

## `summarise()` has grouped output by 'continent'. You can override using the `.groups` argument.

gdp_pop_ext

## # A tibble: 60 × 8
## # Groups:   continent [5]
##    continent  year mean_gdpPercap sd_gdpPercap  mean_pop    sd_pop mean_gdp_billion sd_gdp_billion
##    <fct>     <int>          <dbl>        <dbl>     <dbl>     <dbl>            <dbl>          <dbl>
##  1 Africa     1952          1253.         983.  4570010.  6317450.             5.99           11.4
##  2 Africa     1957          1385.        1135.  5093033.  7076042.             7.36           14.5
##  3 Africa     1962          1598.        1462.  5702247.  7957545.             8.78           17.2
##  4 Africa     1967          2050.        2848.  6447875.  8985505.            11.4            23.2
##  5 Africa     1972          2340.        3287.  7305376. 10130833.            15.1            30.4
##  6 Africa     1977          2586.        4142.  8328097. 11585184.            18.7            38.1
##  7 Africa     1982          2482.        3243.  9602857. 13456243.            22.0            46.6
##  8 Africa     1987          2283.        2567. 11054502. 15277484.            24.1            51.4
##  9 Africa     1992          2282.        2644. 12674645. 17562719.            26.3            55.1
## 10 Africa     1997          2379.        2821. 14304480. 19873013.            30.0            63.0
## # ℹ 50 more rows
…
