14 Solutions || Medical Data | Intro to R
…
## [1] 88

14.1.2 Number of valid tests

clinics %>%
  dplyr::filter(result!="invalid") %>%
  dplyr::group_by(clinic_name) %>%
  dplyr::summarize(n_test = length(clinic_name)) %>%
  dplyr::arrange(desc(n_test))

## # A tibble: 88 × 2
##    clinic_name        n_test
##    <chr>               <int>
##  1 clinical lab         7397
##  2 emergency dept       3353
##  3 oncology day hosp     509
##  4 nicu                  285
##  5 laboratory            262
##  6 picu                  258
##  7 care ntwk             231
##  8 line clinical lab-    218
##  9 inpatient ward a      207
## 10 radiation oncology    161
## # ℹ 78 more rows
…
